{
  "page": 1,
  "total_results": 554,
  "total_pages": 28,
  "results": [
    {
      "popularity": 7.729,
      "vote_count": 155,
      "video": false,
      "poster_path": "/aPZOt9BR3gnk1RyX924ySq81S4P.jpg",
      "id": 14030,
      "adult": false,
      "backdrop_path": "/rvsPkUYhWZkAKMb2fnWHw5pNAjZ.jpg",
      "original_language": "en",
      "original_title": "Hello, Dolly!",
      "genre_ids": [35, 10402, 10749, 10751],
      "title": "Hello, Dolly!",
      "vote_average": 6.9,
      "overview": "Matchmaker, Dolly Levi takes a trip to Yonkers, New York to see the \"well-known unmarried half-a-millionaire,\" Horace Vandergelder. While there, she convinces him, his two stock clerks and his niece and her beau to go to New York City.",
      "release_date": "1969-12-12T00:00:00.000Z"
    },
    {
      "popularity": 5.091,
      "vote_count": 20,
      "video": false,
      "poster_path": "/b2KLqfqDMx81CCPUFM7uomT3g4e.jpg",
      "id": 138977,
      "adult": false,
      "backdrop_path": null,
      "original_language": "ru",
      "original_title": "Hello Herman",
      "genre_ids": [18],
      "title": "Hello Herman",
      "vote_average": 6.2,
      "overview": "Set in the not so distant future, in Any Town USA, sixteen year old Herman Howards makes a fateful decision. He enters his suburban school and kills thirty nine students, two teachers, and a police officer. Just before his arrest he emails his idol, famous journalist Lax Morales, sending him clips of the shootings captured with Herman's own digital camera. In the clips Herman tells Lax, \"I want to tell my story on your show\". Lax, haunted by his own past, is now face to face with Herman.",
      "release_date": "2012-06-05T00:00:00.000Z"
    },
    {
      "popularity": 5.707,
      "vote_count": 49,
      "video": false,
      "poster_path": "/sJFouUfCgHFSUh5OKVSQBSfrfA1.jpg",
      "id": 593961,
      "adult": false,
      "backdrop_path": "/ptijXES6uMuKfKolTbAeV2LvEVN.jpg",
      "original_language": "tl",
      "original_title": "Hello, Love, Goodbye",
      "genre_ids": [18, 10749],
      "title": "Hello, Love, Goodbye",
      "vote_average": 5.4,
      "overview": "A love story of Joy and Ethan, Filipino workers based in Hong Kong. Ethan, a bartender, is keen on romantically pursuing Joy, a domestic helper who is wholly dedicated to providing for her family.",
      "release_date": "2019-07-31T00:00:00.000Z"
    },
    {
      "popularity": 5.057,
      "vote_count": 21,
      "video": false,
      "poster_path": "/2xJG0DYwWFc2wO5KGZ8zxmTyhKr.jpg",
      "id": 361749,
      "adult": false,
      "backdrop_path": "/shGum1pDigO9IbdH0M1ebePB7TB.jpg",
      "original_language": "en",
      "original_title": "Hello, It's Me",
      "genre_ids": [18, 9648, 10749, 10770],
      "title": "Hello, It's Me",
      "vote_average": 7.3,
      "overview": "Two years after her husband dies in a sudden accident, Annie and her two children are left to cope with the loss. Annie can't imagine falling in love again, until she meets a wealthy bachelor who is drawn to her free spirit. Afraid to love again, she longs for guidance when she starts to develop feelings for this new man. Her prayers are answered when she starts receiving communications from her late husband that encourage her to follow her heart.",
      "release_date": "2015-09-27T00:00:00.000Z"
    },
    {
      "popularity": 8.922,
      "vote_count": 314,
      "video": false,
      "poster_path": "/eMh0FnCfiTrL5Su9dDHsl84Tyui.jpg",
      "id": 320588,
      "adult": false,
      "backdrop_path": "/zUhXcua0gCTHjN9tYMQTJyfX7Qm.jpg",
      "original_language": "en",
      "original_title": "Hello, My Name Is Doris",
      "genre_ids": [35, 18, 10749],
      "title": "Hello, My Name Is Doris",
      "vote_average": 6.3,
      "overview": "A self-help seminar inspires a sixty-something woman to romantically pursue her younger co-worker.",
      "release_date": "2015-11-27T00:00:00.000Z"
    },
    {
      "popularity": 5.425,
      "id": 303623,
      "video": false,
      "vote_count": 91,
      "vote_average": 6.5,
      "title": "Hello Ladies: The Movie",
      "release_date": "2014-11-22T00:00:00.000Z",
      "original_language": "en",
      "original_title": "Hello Ladies: The Movie",
      "genre_ids": [35],
      "backdrop_path": null,
      "adult": false,
      "overview": "When Stuart learns that his British ex-girlfriend is planning to visit Los Angeles with her husband, he sets out to impress them with his glamorous lifestyle, enlisting a Russian model he’s just met to play the role of his beautiful girlfriend. What could go wrong?",
      "poster_path": "/s8vjHhKNn8gRzEJGGfNf1IhjfSW.jpg"
    },
    {
      "popularity": 2.453,
      "id": 35151,
      "video": false,
      "vote_count": 35,
      "vote_average": 5.5,
      "title": "Hello Again",
      "release_date": "1987-11-06T00:00:00.000Z",
      "original_language": "en",
      "original_title": "Hello Again",
      "genre_ids": [14, 18, 35, 878, 10749],
      "backdrop_path": "/v2QVQs3ndYs8945dqDzglatCB6Y.jpg",
      "adult": false,
      "overview": "Lucy Chadman (Shelley Long) chokes to death and is resurrected by her loopy sister Zelda (Judith Ivey) on the one year anniversary of her death. Lucy, of course, does not believe she has actually been dead and thinks it is an elaborate hoax until she goes to her apartment and discovers her husband (Corbin Bernsen) married to her gold digging best friend, Kim (Sela Ward).",
      "poster_path": "/mbNJ7Qe33XtN2aenO0ildCOpG0y.jpg"
    },
    {
      "popularity": 4.641,
      "vote_count": 91,
      "video": false,
      "poster_path": "/p1LzTkVUB9nMPumPan2WchqtKKE.jpg",
      "id": 84281,
      "adult": false,
      "backdrop_path": null,
      "original_language": "en",
      "original_title": "Hello I Must Be Going",
      "genre_ids": [35, 18, 10749],
      "title": "Hello I Must Be Going",
      "vote_average": 5.9,
      "overview": "Divorced and demoralised, Amy Minsky’s prospects look bleak when she is condemned to move back in with her parents at the age of 35. Everyone wants to help but, as her patience level with advice is plummeting, a bold teenage boy enters her life, igniting her last bit of self-esteem.",
      "release_date": "2012-09-07T00:00:00.000Z"
    },
    {
      "popularity": 5.205,
      "id": 39929,
      "video": false,
      "vote_count": 82,
      "vote_average": 5.5,
      "title": "Hello Mary Lou: Prom Night II",
      "release_date": "1987-10-16T00:00:00.000Z",
      "original_language": "en",
      "original_title": "Hello Mary Lou: Prom Night II",
      "genre_ids": [27],
      "backdrop_path": "/e8zBkxXyrnb2MHoImnjXwVji4To.jpg",
      "adult": false,
      "overview": "When Hamilton High's Prom Queen of 1957, Mary Lou Maloney is killed by her jilted boyfriend, she comes back for revenge 30 years later. Bill Nordham is now the principle of Hamilton High and his son is about to attend the prom with Vicki Carpenter. However, she is possessed by Mary Lou Maloney after opening a trunk in the school's basement. Now Bill must face the horror he left behind in 1957.",
      "poster_path": "/vhk8OSJs14dZiM8XtqyaRqn1QCJ.jpg"
    },
    {
      "popularity": 1.822,
      "id": 446289,
      "video": false,
      "vote_count": 19,
      "vote_average": 5.6,
      "title": "Hello Again",
      "release_date": "2017-11-08T00:00:00.000Z",
      "original_language": "en",
      "original_title": "Hello Again",
      "genre_ids": [18, 10402, 10749],
      "backdrop_path": "/4w7BJ1r8ovi1PAoFrpfIJYhfacm.jpg",
      "adult": false,
      "overview": "Ten lost souls slip in and out of one another's arms in a daisy-chained musical exploration of love's bittersweet embrace. A film adaptation of Michael John LaChiusa's celebrated musical, originally based on Arthur Schnitzler's play, La Ronde.",
      "poster_path": "/bHHt3HIr7MpYiRSw1XNxZm3B3cn.jpg"
    },
    {
      "popularity": 2.085,
      "vote_count": 0,
      "video": false,
      "poster_path": null,
      "id": 735737,
      "adult": false,
      "backdrop_path": null,
      "original_language": "en",
      "original_title": "Hello Afrika",
      "genre_ids": [],
      "title": "Hello Afrika",
      "vote_average": 0,
      "overview": "Two little girls live in a mountain village. One tells the other she heard that children are dying of hunger in Africa. With their childish imagination and desire to help they take off very early in the morning to take on an exciting adventure.",
      "release_date": "2020-08-25T00:00:00.000Z"
    },
    {
      "popularity": 1.157,
      "vote_count": 1,
      "video": false,
      "poster_path": null,
      "id": 277875,
      "adult": false,
      "backdrop_path": null,
      "original_language": "ta",
      "original_title": "Hello",
      "genre_ids": [10749],
      "title": "Hello",
      "vote_average": 7,
      "overview": "What the movie has in store for you, wait and watch this space for more updates.",
      "release_date": "1999-11-06T00:00:00.000Z"
    },
    {
      "popularity": 2.03,
      "vote_count": 25,
      "video": false,
      "poster_path": "/zeIVLNCZZZuCXUhiPWHxgtuIh9a.jpg",
      "id": 39347,
      "adult": false,
      "backdrop_path": "/j8hzmGVPomKpRH3YagdhQTC0KQx.jpg",
      "original_language": "hi",
      "original_title": "Hello Brother",
      "genre_ids": [35, 10749],
      "title": "Hello Brother",
      "vote_average": 5.2,
      "overview": "A ghost seeking revenge for his death haunts the man who received his heart in a transplant.",
      "release_date": "1999-09-10T00:00:00.000Z"
    },
    {
      "popularity": 1.37,
      "vote_count": 1,
      "video": false,
      "poster_path": null,
      "id": 1864,
      "adult": false,
      "backdrop_path": null,
      "original_language": "en",
      "original_title": "Hello-Goodbye",
      "genre_ids": [35],
      "title": "Hello-Goodbye",
      "vote_average": 10,
      "overview": "A car salesman journeys to France and encounters an apparently lonely woman. He immediately begins to successfully woo her only to learn that she is actually a baron's wife. Fortunately, the baron believes in open marriages and winds up hiring the Englishman to teach his son (from an earlier marriage) everything about automobiles. Meanwhile the car salesman finds himself falling seriously in love with the wife. The baron really doesn't mind as he himself is involved with another.",
      "release_date": "1970-07-12T00:00:00.000Z"
    },
    {
      "popularity": 3.134,
      "id": 734622,
      "video": false,
      "vote_count": 0,
      "vote_average": 0,
      "title": "Hello Again - Ein Tag für immer",
      "release_date": "2020-09-17T00:00:00.000Z",
      "original_language": "de",
      "original_title": "Hello Again - Ein Tag für immer",
      "genre_ids": [35, 10749, 14],
      "backdrop_path": null,
      "adult": false,
      "overview": "",
      "poster_path": "/qXPJdsjpQIjXHZfZoEr3W1Hv9CT.jpg"
    },
    {
      "popularity": 2.428,
      "id": 41749,
      "video": false,
      "vote_count": 8,
      "vote_average": 5.1,
      "title": "Hello Down There",
      "release_date": "1969-01-01T00:00:00.000Z",
      "original_language": "en",
      "original_title": "Hello Down There",
      "genre_ids": [35, 10402, 878],
      "backdrop_path": "/xeO9oEURxere0dtPyfwGRrwJ7Qr.jpg",
      "adult": false,
      "overview": "Given the chance to live in a simulated underwater home for a month, a scientist convinces his family to take advantage of the offer. Once the family agrees to move in, underwater mayhem occurs!",
      "poster_path": "/yt3Rz22qeV2P9UO6dKSv9pyWXne.jpg"
    },
    {
      "popularity": 3.049,
      "id": 460822,
      "video": false,
      "vote_count": 53,
      "vote_average": 7,
      "title": "Oh, Hello on Broadway",
      "release_date": "2017-06-13T00:00:00.000Z",
      "original_language": "en",
      "original_title": "Oh, Hello on Broadway",
      "genre_ids": [35],
      "backdrop_path": "/vFOzXq7G9LTfCfQoYLWljEkdO3w.jpg",
      "adult": false,
      "overview": "Two delusional geriatrics reveal curious pasts, share a love of tuna and welcome a surprise guest in this filming of the popular Broadway comedy show.",
      "poster_path": "/4sgAcBkhKoazB4xFwiYfWIdLMNf.jpg"
    },
    {
      "popularity": 2.194,
      "vote_count": 6,
      "video": false,
      "poster_path": "/8bdO5tzYTtN7ZLMAlPvcvFuUCiF.jpg",
      "id": 90283,
      "adult": false,
      "backdrop_path": "/aLaSFLO6B8fggXQX7gqCA9C8TxC.jpg",
      "original_language": "zh",
      "original_title": "Hello! 树先生",
      "genre_ids": [35],
      "title": "Mr. Tree",
      "vote_average": 7,
      "overview": "A satirical yet delightful adventure about a village idiot who might just be a prophet, Mr. Tree is the auspicious second feature directed by Han Jie and produced by master filmmaker Jia Zhanke\\ (from tiff.net).",
      "release_date": "2011-09-09T00:00:00.000Z"
    },
    {
      "popularity": 2.321,
      "vote_count": 29,
      "video": false,
      "poster_path": "/2YR2kFW3H9VsMDUo26bznfDLo1r.jpg",
      "id": 628039,
      "adult": false,
      "backdrop_path": "/6L4LISre666baQA9kFpfRTwDNuJ.jpg",
      "original_language": "en",
      "original_title": "Hello, Privilege. It's Me, Chelsea",
      "genre_ids": [99],
      "title": "Hello, Privilege. It's Me, Chelsea",
      "vote_average": 4.9,
      "overview": "In this documentary, Chelsea Handler explores how white privilege impacts US culture – and the ways it’s benefited her own life and career.",
      "release_date": "2019-09-13T00:00:00.000Z"
    },
    {
      "popularity": 0.9,
      "id": 496698,
      "video": false,
      "vote_count": 2,
      "vote_average": 4.5,
      "title": "Hello Brother",
      "release_date": "1994-04-20T00:00:00.000Z",
      "original_language": "te",
      "original_title": "Hello Brother",
      "genre_ids": [10749, 35],
      "backdrop_path": null,
      "adult": false,
      "overview": "Hello Brother is a 1994 Telugu action-comedy film, produced by K. L. Narayana on Sri Durga Arts banner, presented by S. Gopal Reddy and directed by E V V Satyanarayana. Starring Akkineni Nagarjuna, Ramya Krishna, Soundarya in lead roles and music composed by Raj-Koti. The film was a Blockbuster at the Box Office. It was later remade in Kannada as Cheluva with V. Ravichandran and Hindi as Judwaa with Salman Khan. The film is loosely based on Twin Dragons and borrows plot elements from the Hindi film Kishen Kanhaiya.",
      "poster_path": "/f2BLnilf2ELTA1riVFB7GCr8Qse.jpg"
    }
  ]
}
